Lab3/Data/T0005CH1.CSV

Model,DPO2002B
Firmware Version,1.56
Point Format,Y
Horizontal Units,S
Horizontal Scale,1e-05
Sample Interval,4e-10
Filter Frequency,7e+07
Record Length,37501
Gating,44.99900 to 55.00
Probe Attenuation,10
Vertical Units,V
Vertical Offset,0
Vertical Scale,0.5
Label,
TIME,CH1
7e-05,-0.001802
7.0001e-05,-0.001802
7.0001e-05,-0.001802
7.0001e-05,-0.0050019
7.0002e-05,0.0013978
7.0002e-05,-0.001802
7.0003e-05,0.0013978
7.0003e-05,0.0013978
7.0003e-05,0.0013978
7.0004e-05,0.0013978
7.0004e-05,-0.001802
7.0005e-05,-0.0050019
7.0005e-05,-0.0050019
7.0005e-05,0.0013978
7.0006e-05,-0.001802
7.0006e-05,-0.001802
7.0007e-05,-0.001802
7.0007e-05,-0.001802
7.0007e-05,-0.001802
7.0008e-05,0.0013978
7.0008e-05,-0.001802
7.0009e-05,0.0013978
7.0009e-05,-0.0050019
7.0009e-05,0.0013978
7.001e-05,-0.0050019
7.001e-05,0.0045977
7.0011e-05,-0.0050019
7.0011e-05,-0.0050019
7.0011e-05,-0.001802
7.0012e-05,0.0013978
7.0012e-05,-0.001802
7.0013e-05,0.0013978
7.0013e-05,-0.001802
7.0013e-05,-0.0050019
7.0014e-05,0.0013978
7.0014e-05,0.0045977
7.0015e-05,-0.001802
7.0015e-05,-0.001802
7.0015e-05,-0.0082018
7.0016e-05,-0.0082018
7.0016e-05,-0.0050019
7.0017e-05,-0.0050019
7.0017e-05,-0.0050019
7.0017e-05,0.0013978
7.0018e-05,-0.001802
7.0018e-05,-0.0050019
7.0019e-05,-0.0050019
7.0019e-05,-0.0082018
7.0019e-05,-0.0050019
7.002e-05,-0.0082018
7.002e-05,-0.0082018
7.0021e-05,-0.0082018
7.0021e-05,-0.001802
7.0021e-05,-0.001802
7.0022e-05,-0.0050019
7.0022e-05,-0.001802
7.0023e-05,-0.0050019
7.0023e-05,-0.0050019
7.0023e-05,-0.0050019
7.0024e-05,-0.011402
7.0024e-05,-0.0082018
7.0025e-05,-0.0050019
7.0025e-05,-0.0050019
7.0025e-05,-0.0082018
7.0026e-05,-0.011402
7.0026e-05,-0.0082018
7.0027e-05,-0.011402
7.0027e-05,-0.0082018
7.0027e-05,-0.0082018
7.0028e-05,-0.011402
7.0028e-05,-0.0082018
7.0029e-05,-0.0050019
7.0029e-05,-0.014602
7.0029e-05,-0.011402
7.003e-05,-0.0082018
7.003e-05,-0.017801
7.0031e-05,-0.0082018
7.0031e-05,-0.0082018
7.0031e-05,-0.0082018
7.0032e-05,-0.0082018
7.0032e-05,-0.0082018
7.0033e-05,-0.011402
7.0033e-05,-0.0082018
7.0033e-05,-0.0082018
7.0034e-05,-0.011402
7.0034e-05,-0.0050019
7.0035e-05,-0.0082018
7.0035e-05,-0.0050019
7.0035e-05,-0.001802
7.0036e-05,-0.0082018
7.0036e-05,-0.0050019
7.0037e-05,0.0013978
7.0037e-05,-0.0082018
7.0037e-05,-0.0050019
7.0038e-05,0.0013978
7.0038e-05,-0.0050019
7.0039e-05,-0.0050019
7.0039e-05,-0.001802
7.0039e-05,-0.001802
7.004e-05,-0.0050019
7.004e-05,0.0013978
7.0041e-05,-0.0050019
7.0041e-05,-0.0050019
7.0041e-05,-0.0082018
7.0042e-05,-0.0082018
7.0042e-05,-0.0050019
7.0043e-05,-0.0050019
7.0043e-05,-0.001802
7.0043e-05,-0.0082018
7.0044e-05,-0.0050019
7.0044e-05,-0.001802
7.0045e-05,-0.0082018
7.0045e-05,-0.0050019
7.0045e-05,-0.0082018
7.0046e-05,-0.0082018
7.0046e-05,-0.0082018
7.0047e-05,-0.0050019
7.0047e-05,-0.0050019
7.0047e-05,-0.0050019
7.0048e-05,-0.0050019
7.0048e-05,-0.0082018
7.0049e-05,-0.0082018
7.0049e-05,-0.0050019
7.0049e-05,-0.0050019
7.005e-05,-0.001802
7.005e-05,-0.0050019
7.0051e-05,-0.0082018
7.0051e-05,-0.0050019
7.0051e-05,-0.0050019
7.0052e-05,-0.011402
7.0052e-05,-0.0050019
7.0053e-05,-0.011402
7.0053e-05,-0.011402
7.0053e-05,-0.0082018
7.0054e-05,-0.0050019
7.0054e-05,-0.0050019
7.0055e-05,-0.001802
7.0055e-05,-0.0050019
7.0055e-05,-0.001802
7.0056e-05,-0.0050019
7.0056e-05,-0.001802
7.0057e-05,-0.001802
7.0057e-05,0.0013978
7.0057e-05,-0.0082018
7.0058e-05,-0.001802
7.0058e-05,0.0013978
7.0059e-05,-0.001802
7.0059e-05,0.0013978
7.0059e-05,0.0045977
7.006e-05,-0.001802
7.006e-05,-0.001802
7.0061e-05,0.0013978
7.0061e-05,0.0013978
7.0061e-05,0.0013978
7.0062e-05,0.0077976
7.0062e-05,0.0013978
7.0063e-05,-0.001802
7.0063e-05,0.0013978
7.0063e-05,0.0013978
7.0064e-05,0.0013978
7.0064e-05,0.0045977
7.0065e-05,0.0045977
7.0065e-05,0.0013978
7.0065e-05,0.0013978
7.0066e-05,0.0077976
7.0066e-05,0.0077976
7.0067e-05,0.0013978
7.0067e-05,0.0045977
7.0067e-05,-0.001802
7.0068e-05,0.0045977
7.0068e-05,0.0045977
7.0069e-05,0.0013978
7.0069e-05,0.0045977
7.0069e-05,0.0013978
7.007e-05,-0.001802
7.007e-05,0.0045977
7.0071e-05,-0.001802
7.0071e-05,-0.001802
7.0071e-05,0.0045977
7.0072e-05,0.0045977
7.0072e-05,-0.001802
7.0073e-05,0.0013978
7.0073e-05,0.0013978
7.0073e-05,-0.001802
7.0074e-05,0.0045977
7.0074e-05,0.0045977
7.0075e-05,-0.001802
7.0075e-05,0.0013978
7.0075e-05,-0.001802
7.0076e-05,-0.0050019
7.0076e-05,-0.001802
7.0077e-05,-0.001802
7.0077e-05,-0.0082018
7.0077e-05,0.0013978
7.0078e-05,-0.001802
7.0078e-05,-0.0082018
7.0079e-05,-0.001802
7.0079e-05,-0.0050019
7.0079e-05,-0.0050019
7.008e-05,-0.001802
7.008e-05,-0.0050019
7.0081e-05,-0.0050019
7.0081e-05,-0.0082018
7.0081e-05,-0.011402
7.0082e-05,-0.0082018
7.0082e-05,-0.001802
7.0083e-05,-0.001802
7.0083e-05,-0.0050019
7.0083e-05,-0.0050019
7.0084e-05,-0.0050019
7.0084e-05,-0.0082018
7.0085e-05,-0.0082018
7.0085e-05,-0.0082018
7.0085e-05,-0.0082018
7.0086e-05,-0.0050019
7.0086e-05,-0.0050019
7.0087e-05,-0.0050019
7.0087e-05,-0.0082018
7.0087e-05,-0.0050019
7.0088e-05,-0.0082018
7.0088e-05,-0.0050019
7.0089e-05,-0.001802
7.0089e-05,-0.0050019
7.0089e-05,-0.0050019
7.009e-05,-0.0050019
7.009e-05,-0.0050019
7.0091e-05,-0.0050019
7.0091e-05,-0.001802
7.0091e-05,-0.0050019
7.0092e-05,-0.011402
7.0092e-05,-0.011402
7.0093e-05,-0.0082018
7.0093e-05,-0.0082018
7.0093e-05,-0.0082018
7.0094e-05,-0.0082018
7.0094e-05,-0.0050019
7.0095e-05,-0.0082018
7.0095e-05,-0.014602
7.0095e-05,-0.0050019
7.0096e-05,-0.011402
7.0096e-05,-0.0082018
7.0097e-05,-0.0082018
7.0097e-05,-0.0082018
7.0097e-05,-0.0082018
7.0098e-05,-0.011402
7.0098e-05,-0.011402
7.0099e-05,-0.011402
7.0099e-05,-0.011402
7.0099e-05,-0.014602
7.01e-05,-0.014602
7.01e-05,-0.011402
7.0101e-05,-0.014602
7.0101e-05,-0.014602
7.0101e-05,-0.011402
7.0102e-05,-0.014602
7.0102e-05,-0.011402
7.0103e-05,-0.011402
7.0103e-05,-0.014602
7.0103e-05,-0.014602
7.0104e-05,-0.017801
7.0104e-05,-0.014602
7.0105e-05,-0.0082018
7.0105e-05,-0.017801
7.0105e-05,-0.014602
7.0106e-05,-0.017801
7.0106e-05,-0.011402
7.0107e-05,-0.011402
7.0107e-05,-0.011402
7.0107e-05,-0.011402
7.0108e-05,-0.011402
7.0108e-05,-0.011402
7.0109e-05,-0.014602
7.0109e-05,-0.021001
7.0109e-05,-0.014602
7.011e-05,-0.014602
7.011e-05,-0.014602
7.0111e-05,-0.011402
7.0111e-05,-0.011402
7.0111e-05,-0.014602
7.0112e-05,-0.014602
7.0112e-05,-0.011402
7.0113e-05,-0.011402
7.0113e-05,-0.014602
7.0113e-05,-0.0082018
7.0114e-05,-0.011402
7.0114e-05,-0.0082018
7.0115e-05,-0.011402
7.0115e-05,-0.014602
7.0115e-05,-0.011402
7.0116e-05,-0.0082018
7.0116e-05,-0.0050019
7.0117e-05,-0.011402
7.0117e-05,-0.001802
7.0117e-05,-0.011402
7.0118e-05,-0.0082018
7.0118e-05,-0.0050019
7.0119e-05,-0.0050019
7.0119e-05,-0.0050019
7.0119e-05,-0.001802
7.012e-05,-0.0050019
7.012e-05,-0.001802
7.0121e-05,-0.0050019
7.0121e-05,-0.001802
7.0121e-05,-0.0050019
7.0122e-05,-0.0082018
7.0122e-05,-0.001802
7.0123e-05,-0.0082018
7.0123e-05,-0.001802
7.0123e-05,-0.001802
7.0124e-05,-0.001802
7.0124e-05,0.0013978
7.0125e-05,-0.001802
7.0125e-05,-0.001802
7.0125e-05,0.0013978
7.0126e-05,-0.001802
7.0126e-05,-0.001802
7.0127e-05,0.0045977
7.0127e-05,0.0013978
7.0127e-05,-0.001802
7.0128e-05,0.0013978
7.0128e-05,0.0045977
7.0129e-05,0.0013978
7.0129e-05,0.0045977
7.0129e-05,-0.001802
7.013e-05,0.0013978
7.013e-05,0.0045977
7.0131e-05,-0.001802
7.0131e-05,-0.001802
7.0131e-05,0.0013978
7.0132e-05,0.0013978
7.0132e-05,-0.001802
7.0133e-05,0.0013978
7.0133e-05,-0.001802
7.0133e-05,-0.001802
7.0134e-05,0.0013978
7.0134e-05,0.0013978
7.0135e-05,-0.001802
7.0135e-05,0.0045977
7.0135e-05,-0.0050019
7.0136e-05,-0.0082018
7.0136e-05,-0.001802
7.0137e-05,-0.001802
7.0137e-05,-0.001802
7.0137e-05,-0.001802
7.0138e-05,-0.0050019
7.0138e-05,-0.001802
7.0139e-05,-0.001802
7.0139e-05,-0.0050019
7.0139e-05,-0.0050019
7.014e-05,-0.011402
7.014e-05,-0.0050019
7.0141e-05,-0.0082018
7.0141e-05,-0.0082018
7.0141e-05,-0.0082018
7.0142e-05,-0.0082018
7.0142e-05,-0.001802
7.0143e-05,-0.001802
7.0143e-05,-0.0082018
7.0143e-05,-0.0082018
7.0144e-05,-0.011402
7.0144e-05,-0.0082018
7.0145e-05,-0.011402
7.0145e-05,-0.011402
7.0145e-05,-0.0082018
7.0146e-05,-0.014602
7.0146e-05,-0.011402
7.0147e-05,-0.014602
7.0147e-05,-0.014602
7.0147e-05,-0.014602
7.0148e-05,-0.014602
7.0148e-05,-0.014602
7.0149e-05,-0.014602
7.0149e-05,-0.014602
7.0149e-05,-0.0082018
7.015e-05,-0.014602
7.015e-05,-0.014602
7.0151e-05,-0.014602
7.0151e-05,-0.011402
7.0151e-05,-0.017801
7.0152e-05,-0.011402
7.0152e-05,-0.014602
7.0153e-05,-0.011402
7.0153e-05,-0.011402
7.0153e-05,-0.014602
7.0154e-05,-0.0050019
7.0154e-05,-0.011402
7.0155e-05,-0.0082018
7.0155e-05,-0.0082018
7.0155e-05,-0.0082018
7.0156e-05,-0.014602
7.0156e-05,-0.011402
7.0157e-05,-0.014602
7.0157e-05,-0.0082018
7.0157e-05,-0.011402
7.0158e-05,-0.0082018
7.0158e-05,-0.0082018
7.0159e-05,-0.011402
7.0159e-05,-0.014602
7.0159e-05,-0.014602
7.016e-05,-0.014602
7.016e-05,-0.014602
7.0161e-05,-0.011402
7.0161e-05,-0.011402
7.0161e-05,-0.011402
7.0162e-05,-0.011402
7.0162e-05,-0.011402
7.0163e-05,-0.0082018
7.0163e-05,-0.0082018
7.0163e-05,-0.011402
7.0164e-05,-0.0050019
7.0164e-05,-0.0082018
7.0165e-05,-0.011402
7.0165e-05,-0.014602
7.0165e-05,-0.0082018
7.0166e-05,-0.0082018
7.0166e-05,-0.0050019
7.0167e-05,-0.0050019
7.0167e-05,-0.0050019
7.0167e-05,-0.0050019
7.0168e-05,-0.001802
7.0168e-05,-0.0050019
7.0169e-05,-0.0050019
7.0169e-05,-0.001802
7.0169e-05,-0.0082018
7.017e-05,-0.001802
7.017e-05,-0.0050019
7.0171e-05,-0.0050019
7.0171e-05,-0.0050019
7.0171e-05,-0.0050019
7.0172e-05,-0.0082018
7.0172e-05,-0.0050019
7.0173e-05,-0.0082018
7.0173e-05,-0.0050019
7.0173e-05,-0.001802
7.0174e-05,-0.0050019
7.0174e-05,-0.0050019
7.0175e-05,-0.001802
7.0175e-05,-0.001802
7.0175e-05,-0.0082018
7.0176e-05,0.0013978
7.0176e-05,-0.001802
7.0177e-05,-0.001802
7.0177e-05,0.0013978
7.0177e-05,-0.0082018
7.0178e-05,-0.0050019
7.0178e-05,-0.0050019
7.0179e-05,-0.001802
7.0179e-05,-0.001802
7.0179e-05,0.0013978
7.018e-05,-0.001802
7.018e-05,-0.0050019
7.0181e-05,-0.0050019
7.0181e-05,-0.0050019
7.0181e-05,-0.001802
7.0182e-05,0.0013978
7.0182e-05,0.0013978
7.0183e-05,-0.0050019
7.0183e-05,-0.001802
7.0183e-05,-0.0050019
7.0184e-05,-0.0050019
7.0184e-05,0.0013978
7.0185e-05,-0.001802
7.0185e-05,0.0013978
7.0185e-05,-0.001802
7.0186e-05,-0.001802
7.0186e-05,-0.001802
7.0187e-05,-0.001802
7.0187e-05,-0.0050019
7.0187e-05,-0.001802
7.0188e-05,-0.001802
7.0188e-05,0.0013978
7.0189e-05,-0.0050019
7.0189e-05,-0.001802
7.0189e-05,-0.001802
7.019e-05,-0.0050019
7.019e-05,0.0013978
7.0191e-05,0.0013978
7.0191e-05,-0.001802
7.0191e-05,-0.001802
7.0192e-05,-0.001802
7.0192e-05,-0.001802
7.0193e-05,0.0013978
7.0193e-05,0.0013978
7.0193e-05,-0.001802
7.0194e-05,0.0045977
7.0194e-05,0.0045977
7.0195e-05,0.0013978
7.0195e-05,0.0045977
7.0195e-05,0.0045977
7.0196e-05,0.0013978
7.0196e-05,0.0045977
7.0197e-05,0.0013978
7.0197e-05,0.0013978
7.0197e-05,0.0045977
7.0198e-05,0.0013978
7.0198e-05,-0.001802
7.0199e-05,0.0013978
7.0199e-05,0.0013978
7.0199e-05,-0.001802
7.02e-05,-0.001802
7.02e-05,-0.001802
7.0201e-05,-0.0050019
7.0201e-05,0.0045977
7.0201e-05,-0.0050019
7.0202e-05,-0.0050019
7.0202e-05,0.0013978
7.0203e-05,-0.001802
7.0203e-05,-0.0082018
7.0203e-05,-0.0050019
7.0204e-05,-0.0082018
7.0204e-05,-0.0050019
7.0205e-05,-0.001802
7.0205e-05,-0.001802
7.0205e-05,0.0013978
7.0206e-05,-0.001802
7.0206e-05,-0.0050019
7.0207e-05,-0.0050019
7.0207e-05,-0.001802
7.0207e-05,-0.001802
7.0208e-05,0.0013978
7.0208e-05,0.0013978
7.0209e-05,-0.0050019
7.0209e-05,-0.001802
7.0209e-05,-0.001802
7.021e-05,-0.001802
7.021e-05,-0.001802
7.0211e-05,0.0045977
7.0211e-05,-0.001802
7.0211e-05,-0.0050019
7.0212e-05,-0.001802
7.0212e-05,-0.001802
7.0213e-05,-0.0050019
7.0213e-05,0.0013978
7.0213e-05,-0.001802
7.0214e-05,-0.0050019
7.0214e-05,-0.001802
7.0215e-05,-0.0050019
7.0215e-05,-0.0050019
7.0215e-05,-0.001802
7.0216e-05,-0.0082018
7.0216e-05,-0.0082018
7.0217e-05,-0.001802
7.0217e-05,-0.0050019
7.0217e-05,-0.0050019
7.0218e-05,-0.0082018
7.0218e-05,-0.0050019
7.0219e-05,-0.0050019
7.0219e-05,0.0045977
7.0219e-05,-0.0050019
7.022e-05,-0.0050019
7.022e-05,0.0013978
7.0221e-05,-0.001802
7.0221e-05,-0.0082018
7.0221e-05,-0.001802
7.0222e-05,-0.0050019
7.0222e-05,-0.0082018
7.0223e-05,-0.0050019
7.0223e-05,-0.0050019
7.0223e-05,-0.0082018
7.0224e-05,-0.0050019
7.0224e-05,-0.0050019
7.0225e-05,-0.0050019
7.0225e-05,-0.0050019
7.0225e-05,-0.0050019
7.0226e-05,-0.0050019
7.0226e-05,-0.0082018
7.0227e-05,-0.011402
7.0227e-05,-0.011402
7.0227e-05,-0.011402
7.0228e-05,-0.011402
7.0228e-05,-0.011402
7.0229e-05,-0.011402
7.0229e-05,-0.017801
7.0229e-05,-0.014602
7.023e-05,-0.011402
7.023e-05,-0.011402
7.0231e-05,-0.0082018
7.0231e-05,-0.0050019
7.0231e-05,-0.0082018
7.0232e-05,-0.011402
7.0232e-05,-0.0082018
7.0233e-05,-0.011402
7.0233e-05,-0.011402
7.0233e-05,-0.011402
7.0234e-05,-0.011402
7.0234e-05,-0.0082018
7.0235e-05,-0.011402
7.0235e-05,-0.011402
7.0235e-05,-0.0050019
7.0236e-05,-0.011402
7.0236e-05,-0.0082018
7.0237e-05,-0.0050019
7.0237e-05,-0.0082018
7.0237e-05,-0.0082018
7.0238e-05,-0.014602
7.0238e-05,-0.011402
7.0239e-05,-0.014602
7.0239e-05,-0.0082018
7.0239e-05,-0.001802
7.024e-05,-0.0050019
7.024e-05,-0.0050019
7.0241e-05,-0.001802
7.0241e-05,-0.0050019
7.0241e-05,-0.0050019
7.0242e-05,-0.0050019
7.0242e-05,-0.0050019
7.0243e-05,-0.0050019
7.0243e-05,-0.001802
7.0243e-05,-0.0082018
7.0244e-05,-0.0082018
7.0244e-05,-0.001802
7.0245e-05,-0.0050019
7.0245e-05,-0.011402
7.0245e-05,-0.001802
7.0246e-05,-0.0050019
7.0246e-05,-0.0050019
7.0247e-05,-0.001802
7.0247e-05,-0.0050019
7.0247e-05,-0.0050019
7.0248e-05,-0.0050019
7.0248e-05,0.0013978
7.0249e-05,-0.0082018
7.0249e-05,-0.001802
7.0249e-05,-0.0050019
7.025e-05,-0.0082018
7.025e-05,-0.0050019
7.0251e-05,-0.001802
7.0251e-05,-0.0050019
7.0251e-05,-0.0050019
7.0252e-05,-0.0050019
7.0252e-05,-0.0050019
7.0253e-05,-0.001802
7.0253e-05,-0.001802
7.0253e-05,-0.0050019
7.0254e-05,-0.0050019
7.0254e-05,-0.001802
7.0255e-05,-0.0050019
7.0255e-05,0.0013978
7.0255e-05,-0.0050019
7.0256e-05,-0.0082018
7.0256e-05,-0.0050019
7.0257e-05,-0.0050019
7.0257e-05,-0.0050019
7.0257e-05,-0.0050019
7.0258e-05,-0.0050019
7.0258e-05,-0.0050019
7.0259e-05,-0.0050019
7.0259e-05,-0.001802
7.0259e-05,-0.0050019
7.026e-05,-0.001802
7.026e-05,-0.0050019
7.0261e-05,-0.0050019
7.0261e-05,-0.0050019
7.0261e-05,-0.001802
7.0262e-05,-0.0050019
7.0262e-05,-0.001802
7.0263e-05,-0.001802
7.0263e-05,-0.0082018
7.0263e-05,-0.0050019
7.0264e-05,-0.001802
7.0264e-05,-0.011402
7.0265e-05,-0.001802
7.0265e-05,-0.001802
7.0265e-05,-0.0050019
7.0266e-05,-0.011402
7.0266e-05,-0.0082018
7.0267e-05,-0.0050019
7.0267e-05,-0.0082018
7.0267e-05,-0.0050019
7.0268e-05,-0.0082018
7.0268e-05,-0.011402
7.0269e-05,-0.011402
7.0269e-05,-0.0082018
7.0269e-05,-0.011402
7.027e-05,-0.0082018
7.027e-05,-0.011402
7.0271e-05,-0.0082018
7.0271e-05,-0.0050019
7.0271e-05,-0.011402
7.0272e-05,-0.011402
7.0272e-05,-0.011402
7.0273e-05,-0.011402
7.0273e-05,-0.011402
7.0273e-05,-0.011402
7.0274e-05,-0.011402
7.0274e-05,-0.011402
7.0275e-05,-0.0082018
7.0275e-05,-0.0082018
7.0275e-05,-0.0050019
7.0276e-05,-0.0082018
7.0276e-05,-0.0082018
7.0277e-05,-0.011402
7.0277e-05,-0.0082018
7.0277e-05,-0.011402
7.0278e-05,-0.0082018
7.0278e-05,-0.0082018
7.0279e-05,-0.0082018
7.0279e-05,-0.011402
7.0279e-05,-0.0082018
7.028e-05,-0.0082018
7.028e-05,-0.011402
7.0281e-05,-0.0082018
7.0281e-05,-0.011402
7.0281e-05,-0.011402
7.0282e-05,-0.011402
7.0282e-05,-0.011402
7.0283e-05,-0.011402
7.0283e-05,-0.0082018
7.0283e-05,-0.011402
7.0284e-05,-0.0082018
7.0284e-05,-0.014602
7.0285e-05,-0.011402
7.0285e-05,-0.011402
7.0285e-05,-0.014602
7.0286e-05,-0.011402
7.0286e-05,-0.017801
7.0287e-05,-0.011402
7.0287e-05,-0.011402
7.0287e-05,-0.0082018
7.0288e-05,-0.014602
7.0288e-05,-0.014602
7.0289e-05,-0.014602
7.0289e-05,-0.014602
7.0289e-05,-0.021001
7.029e-05,-0.017801
7.029e-05,-0.014602
7.0291e-05,-0.017801
7.0291e-05,-0.014602
7.0291e-05,-0.017801
7.0292e-05,-0.017801
7.0292e-05,-0.021001
7.0293e-05,-0.014602
7.0293e-05,-0.017801
7.0293e-05,-0.017801
7.0294e-05,-0.021001
7.0294e-05,-0.021001
7.0295e-05,-0.014602
7.0295e-05,-0.017801
7.0295e-05,-0.017801
7.0296e-05,-0.021001
7.0296e-05,-0.017801
7.0297e-05,-0.017801
7.0297e-05,-0.017801
7.0297e-05,-0.017801
7.0298e-05,-0.017801
7.0298e-05,-0.017801
7.0299e-05,-0.014602
7.0299e-05,-0.021001
7.0299e-05,-0.011402
7.03e-05,-0.014602
7.03e-05,-0.017801
7.0301e-05,-0.017801
7.0301e-05,-0.017801
7.0301e-05,-0.014602
7.0302e-05,-0.017801
7.0302e-05,-0.017801
7.0303e-05,-0.014602
7.0303e-05,-0.017801
7.0303e-05,-0.014602
7.0304e-05,-0.014602
7.0304e-05,-0.011402
7.0305e-05,-0.014602
7.0305e-05,-0.011402
7.0305e-05,-0.014602
7.0306e-05,-0.011402
7.0306e-05,-0.011402
7.0307e-05,-0.011402
7.0307e-05,-0.0082018
7.0307e-05,-0.0082018
7.0308e-05,-0.011402
7.0308e-05,-0.014602
7.0309e-05,-0.0050019
7.0309e-05,-0.0082018
7.0309e-05,-0.0082018
7.031e-05,-0.0082018
7.031e-05,-0.0050019
7.0311e-05,-0.0050019
7.0311e-05,-0.0082018
7.0311e-05,-0.0050019
7.0312e-05,-0.0050019
7.0312e-05,-0.0082018
7.0313e-05,-0.0082018
7.0313e-05,-0.0082018
7.0313e-05,-0.0082018
7.0314e-05,-0.011402
7.0314e-05,-0.0082018
7.0315e-05,-0.0082018
7.0315e-05,-0.0082018
7.0315e-05,-0.0050019
7.0316e-05,-0.011402
7.0316e-05,-0.0050019
7.0317e-05,-0.0082018
7.0317e-05,-0.001802
7.0317e-05,-0.001802
7.0318e-05,-0.0050019
7.0318e-05,-0.0050019
7.0319e-05,-0.0050019
7.0319e-05,-0.0050019
7.0319e-05,-0.0050019
7.032e-05,-0.001802
7.032e-05,-0.0050019
7.0321e-05,-0.001802
7.0321e-05,-0.001802
7.0321e-05,-0.0050019
7.0322e-05,-0.011402
7.0322e-05,-0.0050019
7.0323e-05,-0.0082018
7.0323e-05,-0.0082018
7.0323e-05,-0.0082018
7.0324e-05,-0.001802
7.0324e-05,-0.0082018
7.0325e-05,-0.0082018
7.0325e-05,-0.0082018
7.0325e-05,-0.0082018
7.0326e-05,-0.014602
7.0326e-05,-0.014602
7.0327e-05,-0.014602
7.0327e-05,-0.011402
7.0327e-05,-0.011402
7.0328e-05,-0.011402
7.0328e-05,-0.011402
7.0329e-05,-0.014602
7.0329e-05,-0.014602
7.0329e-05,-0.014602
7.033e-05,-0.017801
7.033e-05,-0.014602
7.0331e-05,-0.014602
7.0331e-05,-0.014602
7.0331e-05,-0.0082018
7.0332e-05,-0.014602
7.0332e-05,-0.014602
7.0333e-05,-0.017801
7.0333e-05,-0.011402
7.0333e-05,-0.017801
7.0334e-05,-0.017801
7.0334e-05,-0.017801
7.0335e-05,-0.017801
7.0335e-05,-0.011402
7.0335e-05,-0.014602
7.0336e-05,-0.014602
7.0336e-05,-0.017801
7.0337e-05,-0.011402
7.0337e-05,-0.011402
7.0337e-05,-0.014602
7.0338e-05,-0.014602
7.0338e-05,-0.0082018
7.0339e-05,-0.0082018
7.0339e-05,-0.014602
7.0339e-05,-0.0082018
7.034e-05,-0.011402
7.034e-05,-0.0050019
7.0341e-05,-0.0082018
7.0341e-05,-0.011402
7.0341e-05,-0.0082018
7.0342e-05,-0.0050019
7.0342e-05,-0.0082018
7.0343e-05,-0.0082018
7.0343e-05,-0.0050019
7.0343e-05,-0.0082018
7.0344e-05,-0.0050019
7.0344e-05,-0.0050019
7.0345e-05,-0.0082018
7.0345e-05,-0.0082018
7.0345e-05,-0.0082018
7.0346e-05,-0.0050019
7.0346e-05,0.0045977
7.0347e-05,-0.001802
7.0347e-05,-0.001802
7.0347e-05,-0.0050019
7.0348e-05,-0.001802
7.0348e-05,-0.0050019
7.0349e-05,-0.0050019
7.0349e-05,-0.0082018
7.0349e-05,-0.0050019
7.035e-05,-0.0050019
7.035e-05,-0.001802
7.0351e-05,-0.0082018
7.0351e-05,-0.001802
7.0351e-05,-0.0082018
7.0352e-05,-0.0082018
7.0352e-05,-0.011402
7.0353e-05,-0.0082018
7.0353e-05,-0.0082018
7.0353e-05,-0.011402
7.0354e-05,-0.014602
7.0354e-05,-0.014602
7.0355e-05,-0.011402
7.0355e-05,-0.014602
7.0355e-05,-0.011402
7.0356e-05,-0.011402
7.0356e-05,-0.011402
7.0357e-05,-0.011402
7.0357e-05,-0.011402
7.0357e-05,-0.011402
7.0358e-05,-0.014602
7.0358e-05,-0.011402
7.0359e-05,-0.0082018
7.0359e-05,-0.011402
7.0359e-05,-0.0082018
7.036e-05,-0.011402
7.036e-05,-0.011402
7.0361e-05,-0.0082018
7.0361e-05,-0.0082018
7.0361e-05,-0.0082018
7.0362e-05,-0.0050019
7.0362e-05,-0.0050019
7.0363e-05,-0.0082018
7.0363e-05,-0.0082018
7.0363e-05,-0.011402
7.0364e-05,-0.0082018
7.0364e-05,-0.0050019
7.0365e-05,-0.0050019
7.0365e-05,-0.0050019
7.0365e-05,0.0013978
7.0366e-05,-0.001802
7.0366e-05,-0.0050019
7.0367e-05,0.0013978
7.0367e-05,-0.001802
7.0367e-05,-0.0050019
7.0368e-05,-0.001802
7.0368e-05,-0.0050019
7.0369e-05,0.0013978
7.0369e-05,0.0013978
7.0369e-05,-0.001802
